HW_DSD_CPU_402106112/src/alu_16.vcd
$date
	Fri Jul 18 12:20:00 2025
$end
$version
	Icarus Verilog
$end
$timescale
	1s
$end
$scope module alu_16_tb $end
$var wire 16 ! sub_exp [15:0] $end
$var wire 16 " result [15:0] $end
$var wire 16 # mul_exp [15:0] $end
$var wire 1 $ done $end
$var wire 16 % div_exp [15:0] $end
$var wire 16 & add_exp [15:0] $end
$var parameter 32 ' CLK_PERIOD $end
$var reg 16 ( A [15:0] $end
$var reg 16 ) B [15:0] $end
$var reg 1 * clk $end
$var reg 1 + error_flag $end
$var reg 3 , opcode [2:0] $end
$var reg 1 - reset $end
$var reg 1 . start $end
$var integer 32 / i [31:0] $end
$var integer 32 0 j [31:0] $end
$scope module alu_inst $end
$var wire 16 1 A [15:0] $end
$var wire 16 2 B [15:0] $end
$var wire 1 * clk $end
$var wire 3 3 opcode [2:0] $end
$var wire 1 - reset $end
$var wire 1 . start $end
$var wire 16 4 mul_result [15:0] $end
$var wire 1 5 mul_done $end
$var wire 16 6 div_remainder [15:0] $end
$var wire 16 7 div_quotient [15:0] $end
$var wire 1 8 div_done $end
$var wire 1 9 c_out $end
$var wire 16 : b_adder [15:0] $end
$var wire 16 ; add_sub_result [15:0] $end
$var parameter 32 < DIV_WAIT $end
$var parameter 32 = IDLE $end
$var parameter 32 > MUL_WAIT $end
$var reg 1 ? div_start $end
$var reg 1 $ done $end
$var reg 1 @ mul_start $end
$var reg 16 A result [15:0] $end
$var reg 2 B state [1:0] $end
$scope module add_sub $end
$var wire 16 C A [15:0] $end
$var wire 16 D B [15:0] $end
$var wire 1 E c_in $end
$var wire 16 F sum [15:0] $end
$var wire 1 9 c_out $end
$var wire 1 G c3 $end
$var wire 1 H c2 $end
$var wire 1 I c1 $end
$scope module csa2 $end
$var wire 4 J A [3:0] $end
$var wire 4 K B [3:0] $end
$var wire 4 L sum_2 [3:0] $end
$var wire 4 M sum_1 [3:0] $end
$var wire 4 N sum [3:0] $end
$var wire 1 O c_out_2 $end
$var wire 1 P c_out_1 $end
$var wire 1 H c_out $end
$var wire 1 I c_in $end
$scope module rca_1 $end
$var wire 4 Q A [3:0] $end
$var wire 4 R B [3:0] $end
$var wire 1 S c_in $end
$var wire 4 T sum [3:0] $end
$var wire 1 P c_out $end
$var wire 1 U c3 $end
$var wire 1 V c2 $end
$var wire 1 W c1 $end
$scope module f1 $end
$var wire 1 X a $end
$var wire 1 Y b $end
$var wire 1 Z c1 $end
$var wire 1 [ c2 $end
$var wire 1 \ c3 $end
$var wire 1 S c_in $end
$var wire 1 W c_out $end
$var wire 1 ] sum $end
$upscope $end
$scope module f2 $end
$var wire 1 ^ a $end
$var wire 1 _ b $end
$var wire 1 ` c1 $end
$var wire 1 a c2 $end
$var wire 1 b c3 $end
$var wire 1 W c_in $end
$var wire 1 V c_out $end
$var wire 1 c sum $end
$upscope $end
$scope module f3 $end
$var wire 1 d a $end
$var wire 1 e b $end
$var wire 1 f c1 $end
$var wire 1 g c2 $end
$var wire 1 h c3 $end
$var wire 1 V c_in $end
$var wire 1 U c_out $end
$var wire 1 i sum $end
$upscope $end
$scope module f4 $end
$var wire 1 j a $end
$var wire 1 k b $end
$var wire 1 l c1 $end
$var wire 1 m c2 $end
$var wire 1 n c3 $end
$var wire 1 U c_in $end
$var wire 1 P c_out $end
$var wire 1 o sum $end
$upscope $end
$upscope $end
$scope module rca_2 $end
$var wire 4 p A [3:0] $end
$var wire 4 q B [3:0] $end
$var wire 1 r c_in $end
$var wire 4 s sum [3:0] $end
$var wire 1 O c_out $end
$var wire 1 t c3 $end
$var wire 1 u c2 $end
$var wire 1 v c1 $end
$scope module f1 $end
$var wire 1 w a $end
$var wire 1 x b $end
$var wire 1 y c1 $end
$var wire 1 z c2 $end
$var wire 1 { c3 $end
$var wire 1 r c_in $end
$var wire 1 v c_out $end
$var wire 1 | sum $end
$upscope $end
$scope module f2 $end
$var wire 1 } a $end
$var wire 1 ~ b $end
$var wire 1 !" c1 $end
$var wire 1 "" c2 $end
$var wire 1 #" c3 $end
$var wire 1 v c_in $end
$var wire 1 u c_out $end
$var wire 1 $" sum $end
$upscope $end
$scope module f3 $end
$var wire 1 %" a $end
$var wire 1 &" b $end
$var wire 1 '" c1 $end
$var wire 1 (" c2 $end
$var wire 1 )" c3 $end
$var wire 1 u c_in $end
$var wire 1 t c_out $end
$var wire 1 *" sum $end
$upscope $end
$scope module f4 $end
$var wire 1 +" a $end
$var wire 1 ," b $end
$var wire 1 -" c1 $end
$var wire 1 ." c2 $end
$var wire 1 /" c3 $end
$var wire 1 t c_in $end
$var wire 1 O c_out $end
$var wire 1 0" sum $end
$upscope $end
$upscope $end
$scope module result_1 $end
$var wire 4 1" A [3:0] $end
$var wire 4 2" B [3:0] $end
$var wire 1 I select $end
$var wire 4 3" out [3:0] $end
$scope begin mux_loop[0] $end
$var parameter 2 4" i $end
$scope module m $end
$var wire 1 5" a $end
$var wire 1 6" b $end
$var wire 1 7" c1 $end
$var wire 1 8" c2 $end
$var wire 1 9" out $end
$var wire 1 :" s_not $end
$var wire 1 I s $end
$upscope $end
$upscope $end
$scope begin mux_loop[1] $end
$var parameter 2 ;" i $end
$scope module m $end
$var wire 1 <" a $end
$var wire 1 =" b $end
$var wire 1 >" c1 $end
$var wire 1 ?" c2 $end
$var wire 1 @" out $end
$var wire 1 A" s_not $end
$var wire 1 I s $end
$upscope $end
$upscope $end
$scope begin mux_loop[2] $end
$var parameter 3 B" i $end
$scope module m $end
$var wire 1 C" a $end
$var wire 1 D" b $end
$var wire 1 E" c1 $end
$var wire 1 F" c2 $end
$var wire 1 G" out $end
$var wire 1 H" s_not $end
$var wire 1 I s $end
$upscope $end
$upscope $end
$scope begin mux_loop[3] $end
$var parameter 3 I" i $end
$scope module m $end
$var wire 1 J" a $end
$var wire 1 K" b $end
$var wire 1 L" c1 $end
$var wire 1 M" c2 $end
$var wire 1 N" out $end
$var wire 1 O" s_not $end
$var wire 1 I s $end
$upscope $end
$upscope $end
$upscope $end
$scope module result_2 $end
$var wire 1 P a $end
$var wire 1 O b $end
$var wire 1 P" c1 $end
$var wire 1 Q" c2 $end
$var wire 1 H out $end
$var wire 1 R" s_not $end
$var wire 1 I s $end
$upscope $end
$upscope $end
$scope module csa3 $end
$var wire 4 S" A [3:0] $end
$var wire 4 T" B [3:0] $end
$var wire 1 H c_in $end
$var wire 4 U" sum_2 [3:0] $end
$var wire 4 V" sum_1 [3:0] $end
$var wire 4 W" sum [3:0] $end
$var wire 1 X" c_out_2 $end
$var wire 1 Y" c_out_1 $end
$var wire 1 G c_out $end
$scope module rca_1 $end
$var wire 4 Z" A [3:0] $end
$var wire 4 [" B [3:0] $end
$var wire 1 \" c_in $end
$var wire 4 ]" sum [3:0] $end
$var wire 1 Y" c_out $end
$var wire 1 ^" c3 $end
$var wire 1 _" c2 $end
$var wire 1 `" c1 $end
$scope module f1 $end
$var wire 1 a" a $end
$var wire 1 b" b $end
$var wire 1 c" c1 $end
$var wire 1 d" c2 $end
$var wire 1 e" c3 $end
$var wire 1 \" c_in $end
$var wire 1 `" c_out $end
$var wire 1 f" sum $end
$upscope $end
$scope module f2 $end
$var wire 1 g" a $end
$var wire 1 h" b $end
$var wire 1 i" c1 $end
$var wire 1 j" c2 $end
$var wire 1 k" c3 $end
$var wire 1 `" c_in $end
$var wire 1 _" c_out $end
$var wire 1 l" sum $end
$upscope $end
$scope module f3 $end
$var wire 1 m" a $end
$var wire 1 n" b $end
$var wire 1 o" c1 $end
$var wire 1 p" c2 $end
$var wire 1 q" c3 $end
$var wire 1 _" c_in $end
$var wire 1 ^" c_out $end
$var wire 1 r" sum $end
$upscope $end
$scope module f4 $end
$var wire 1 s" a $end
$var wire 1 t" b $end
$var wire 1 u" c1 $end
$var wire 1 v" c2 $end
$var wire 1 w" c3 $end
$var wire 1 ^" c_in $end
$var wire 1 Y" c_out $end
$var wire 1 x" sum $end
$upscope $end
$upscope $end
$scope module rca_2 $end
$var wire 4 y" A [3:0] $end
$var wire 4 z" B [3:0] $end
$var wire 1 {" c_in $end
$var wire 4 |" sum [3:0] $end
$var wire 1 X" c_out $end
$var wire 1 }" c3 $end
$var wire 1 ~" c2 $end
$var wire 1 !# c1 $end
$scope module f1 $end
$var wire 1 "# a $end
$var wire 1 ## b $end
$var wire 1 $# c1 $end
$var wire 1 %# c2 $end
$var wire 1 &# c3 $end
$var wire 1 {" c_in $end
$var wire 1 !# c_out $end
$var wire 1 '# sum $end
$upscope $end
$scope module f2 $end
$var wire 1 (# a $end
$var wire 1 )# b $end
$var wire 1 *# c1 $end
$var wire 1 +# c2 $end
$var wire 1 ,# c3 $end
$var wire 1 !# c_in $end
$var wire 1 ~" c_out $end
$var wire 1 -# sum $end
$upscope $end
$scope module f3 $end
$var wire 1 .# a $end
$var wire 1 /# b $end
$var wire 1 0# c1 $end
$var wire 1 1# c2 $end
$var wire 1 2# c3 $end
$var wire 1 ~" c_in $end
$var wire 1 }" c_out $end
$var wire 1 3# sum $end
$upscope $end
$scope module f4 $end
$var wire 1 4# a $end
$var wire 1 5# b $end
$var wire 1 6# c1 $end
$var wire 1 7# c2 $end
$var wire 1 8# c3 $end
$var wire 1 }" c_in $end
$var wire 1 X" c_out $end
$var wire 1 9# sum $end
$upscope $end
$upscope $end
$scope module result_1 $end
$var wire 4 :# A [3:0] $end
$var wire 4 ;# B [3:0] $end
$var wire 1 H select $end
$var wire 4 <# out [3:0] $end
$scope begin mux_loop[0] $end
$var parameter 2 =# i $end
$scope module m $end
$var wire 1 ># a $end
$var wire 1 ?# b $end
$var wire 1 @# c1 $end
$var wire 1 A# c2 $end
$var wire 1 B# out $end
$var wire 1 H s $end
$var wire 1 C# s_not $end
$upscope $end
$upscope $end
$scope begin mux_loop[1] $end
$var parameter 2 D# i $end
$scope module m $end
$var wire 1 E# a $end
$var wire 1 F# b $end
$var wire 1 G# c1 $end
$var wire 1 H# c2 $end
$var wire 1 I# out $end
$var wire 1 H s $end
$var wire 1 J# s_not $end
$upscope $end
$upscope $end
$scope begin mux_loop[2] $end
$var parameter 3 K# i $end
$scope module m $end
$var wire 1 L# a $end
$var wire 1 M# b $end
$var wire 1 N# c1 $end
$var wire 1 O# c2 $end
$var wire 1 P# out $end
$var wire 1 H s $end
$var wire 1 Q# s_not $end
$upscope $end
$upscope $end
$scope begin mux_loop[3] $end
$var parameter 3 R# i $end
$scope module m $end
$var wire 1 S# a $end
$var wire 1 T# b $end
$var wire 1 U# c1 $end
$var wire 1 V# c2 $end
$var wire 1 W# out $end
$var wire 1 H s $end
$var wire 1 X# s_not $end
$upscope $end
$upscope $end
$upscope $end
$scope module result_2 $end
$var wire 1 Y" a $end
$var wire 1 X" b $end
$var wire 1 Y# c1 $end
$var wire 1 Z# c2 $end
$var wire 1 G out $end
$var wire 1 H s $end
$var wire 1 [# s_not $end
$upscope $end
$upscope $end
$scope module csa4 $end
$var wire 4 \# A [3:0] $end
$var wire 4 ]# B [3:0] $end
$var wire 1 G c_in $end
$var wire 4 ^# sum_2 [3:0] $end
$var wire 4 _# sum_1 [3:0] $end
$var wire 4 `# sum [3:0] $end
$var wire 1 a# c_out_2 $end
$var wire 1 b# c_out_1 $end
$var wire 1 9 c_out $end
$scope module rca_1 $end
$var wire 4 c# A [3:0] $end
$var wire 4 d# B [3:0] $end
$var wire 1 e# c_in $end
$var wire 4 f# sum [3:0] $end
$var wire 1 b# c_out $end
$var wire 1 g# c3 $end
$var wire 1 h# c2 $end
$var wire 1 i# c1 $end
$scope module f1 $end
$var wire 1 j# a $end
$var wire 1 k# b $end
$var wire 1 l# c1 $end
$var wire 1 m# c2 $end
$var wire 1 n# c3 $end
$var wire 1 e# c_in $end
$var wire 1 i# c_out $end
$var wire 1 o# sum $end
$upscope $end
$scope module f2 $end
$var wire 1 p# a $end
$var wire 1 q# b $end
$var wire 1 r# c1 $end
$var wire 1 s# c2 $end
$var wire 1 t# c3 $end
$var wire 1 i# c_in $end
$var wire 1 h# c_out $end
$var wire 1 u# sum $end
$upscope $end
$scope module f3 $end
$var wire 1 v# a $end
$var wire 1 w# b $end
$var wire 1 x# c1 $end
$var wire 1 y# c2 $end
$var wire 1 z# c3 $end
$var wire 1 h# c_in $end
$var wire 1 g# c_out $end
$var wire 1 {# sum $end
$upscope $end
$scope module f4 $end
$var wire 1 |# a $end
$var wire 1 }# b $end
$var wire 1 ~# c1 $end
$var wire 1 !$ c2 $end
$var wire 1 "$ c3 $end
$var wire 1 g# c_in $end
$var wire 1 b# c_out $end
$var wire 1 #$ sum $end
$upscope $end
$upscope $end
$scope module rca_2 $end
$var wire 4 $$ A [3:0] $end
$var wire 4 %$ B [3:0] $end
$var wire 1 &$ c_in $end
$var wire 4 '$ sum [3:0] $end
$var wire 1 a# c_out $end
$var wire 1 ($ c3 $end
$var wire 1 )$ c2 $end
$var wire 1 *$ c1 $end
$scope module f1 $end
$var wire 1 +$ a $end
$var wire 1 ,$ b $end
$var wire 1 -$ c1 $end
$var wire 1 .$ c2 $end
$var wire 1 /$ c3 $end
$var wire 1 &$ c_in $end
$var wire 1 *$ c_out $end
$var wire 1 0$ sum $end
$upscope $end
$scope module f2 $end
$var wire 1 1$ a $end
$var wire 1 2$ b $end
$var wire 1 3$ c1 $end
$var wire 1 4$ c2 $end
$var wire 1 5$ c3 $end
$var wire 1 *$ c_in $end
$var wire 1 )$ c_out $end
$var wire 1 6$ sum $end
$upscope $end
$scope module f3 $end
$var wire 1 7$ a $end
$var wire 1 8$ b $end
$var wire 1 9$ c1 $end
$var wire 1 :$ c2 $end
$var wire 1 ;$ c3 $end
$var wire 1 )$ c_in $end
$var wire 1 ($ c_out $end
$var wire 1 <$ sum $end
$upscope $end
$scope module f4 $end
$var wire 1 =$ a $end
$var wire 1 >$ b $end
$var wire 1 ?$ c1 $end
$var wire 1 @$ c2 $end
$var wire 1 A$ c3 $end
$var wire 1 ($ c_in $end
$var wire 1 a# c_out $end
$var wire 1 B$ sum $end
$upscope $end
$upscope $end
$scope module result_1 $end
$var wire 4 C$ A [3:0] $end
$var wire 4 D$ B [3:0] $end
$var wire 1 G select $end
$var wire 4 E$ out [3:0] $end
$scope begin mux_loop[0] $end
$var parameter 2 F$ i $end
$scope module m $end
$var wire 1 G$ a $end
$var wire 1 H$ b $end
$var wire 1 I$ c1 $end
$var wire 1 J$ c2 $end
$var wire 1 K$ out $end
$var wire 1 G s $end
$var wire 1 L$ s_not $end
$upscope $end
$upscope $end
$scope begin mux_loop[1] $end
$var parameter 2 M$ i $end
$scope module m $end
$var wire 1 N$ a $end
$var wire 1 O$ b $end
$var wire 1 P$ c1 $end
$var wire 1 Q$ c2 $end
$var wire 1 R$ out $end
$var wire 1 G s $end
$var wire 1 S$ s_not $end
$upscope $end
$upscope $end
$scope begin mux_loop[2] $end
$var parameter 3 T$ i $end
$scope module m $end
$var wire 1 U$ a $end
$var wire 1 V$ b $end
$var wire 1 W$ c1 $end
$var wire 1 X$ c2 $end
$var wire 1 Y$ out $end
$var wire 1 G s $end
$var wire 1 Z$ s_not $end
$upscope $end
$upscope $end
$scope begin mux_loop[3] $end
$var parameter 3 [$ i $end
$scope module m $end
$var wire 1 \$ a $end
$var wire 1 ]$ b $end
$var wire 1 ^$ c1 $end
$var wire 1 _$ c2 $end
$var wire 1 `$ out $end
$var wire 1 G s $end
$var wire 1 a$ s_not $end
$upscope $end
$upscope $end
$upscope $end
$scope module result_2 $end
$var wire 1 b# a $end
$var wire 1 a# b $end
$var wire 1 b$ c1 $end
$var wire 1 c$ c2 $end
$var wire 1 9 out $end
$var wire 1 G s $end
$var wire 1 d$ s_not $end
$upscope $end
$upscope $end
$scope module rca1 $end
$var wire 4 e$ A [3:0] $end
$var wire 4 f$ B [3:0] $end
$var wire 1 E c_in $end
$var wire 4 g$ sum [3:0] $end
$var wire 1 I c_out $end
$var wire 1 h$ c3 $end
$var wire 1 i$ c2 $end
$var wire 1 j$ c1 $end
$scope module f1 $end
$var wire 1 k$ a $end
$var wire 1 l$ b $end
$var wire 1 m$ c1 $end
$var wire 1 n$ c2 $end
$var wire 1 o$ c3 $end
$var wire 1 E c_in $end
$var wire 1 j$ c_out $end
$var wire 1 p$ sum $end
$upscope $end
$scope module f2 $end
$var wire 1 q$ a $end
$var wire 1 r$ b $end
$var wire 1 s$ c1 $end
$var wire 1 t$ c2 $end
$var wire 1 u$ c3 $end
$var wire 1 j$ c_in $end
$var wire 1 i$ c_out $end
$var wire 1 v$ sum $end
$upscope $end
$scope module f3 $end
$var wire 1 w$ a $end
$var wire 1 x$ b $end
$var wire 1 y$ c1 $end
$var wire 1 z$ c2 $end
$var wire 1 {$ c3 $end
$var wire 1 i$ c_in $end
$var wire 1 h$ c_out $end
$var wire 1 |$ sum $end
$upscope $end
$scope module f4 $end
$var wire 1 }$ a $end
$var wire 1 ~$ b $end
$var wire 1 !% c1 $end
$var wire 1 "% c2 $end
$var wire 1 #% c3 $end
$var wire 1 h$ c_in $end
$var wire 1 I c_out $end
$var wire 1 $% sum $end
$upscope $end
$upscope $end
$upscope $end
$scope module div $end
$var wire 1 * clk $end
$var wire 16 %% dividend [15:0] $end
$var wire 16 &% divisor [15:0] $end
$var wire 1 - reset $end
$var wire 1 ? start $end
$var reg 16 '% abs_dividend [15:0] $end
$var reg 16 (% abs_divisor [15:0] $end
$var reg 5 )% counter [4:0] $end
$var reg 1 8 done $end
$var reg 16 *% quotient [15:0] $end
$var reg 16 +% remainder [15:0] $end
$var reg 1 ,% sign_q $end
$var reg 1 -% sign_r $end
$var reg 1 .% start_calc_flag $end
$upscope $end
$scope module mul $end
$var wire 16 /% A [15:0] $end
$var wire 16 0% B [15:0] $end
$var wire 1 * clk $end
$var wire 1 - reset $end
$var wire 1 @ start $end
$var wire 16 1% partial_result [15:0] $end
$var wire 1 2% mul_done $end
$var reg 1 5 done $end
$var reg 8 3% mul_A [7:0] $end
$var reg 8 4% mul_B [7:0] $end
$var reg 1 5% mul_start $end
$var reg 16 6% result [15:0] $end
$var reg 3 7% state [2:0] $end
$var reg 16 8% z0 [15:0] $end
$var reg 16 9% z1 [15:0] $end
$var reg 16 :% z2 [15:0] $end
$scope module mul_unit $end
$var wire 8 ;% A [7:0] $end
$var wire 8 <% B [7:0] $end
$var wire 1 * clk $end
$var wire 1 - reset $end
$var wire 1 5% start $end
$var reg 16 =% A_shift [15:0] $end
$var reg 8 >% B_shift [7:0] $end
$var reg 4 ?% counter [3:0] $end
$var reg 1 2% done $end
$var reg 16 @% product [15:0] $end
$var reg 16 A% result [15:0] $end
$var reg 1 B% start_calc_flag $end
$upscope $end
$upscope $end
$upscope $end
$upscope $end
$enddefinitions $end
$comment Show the parameter values. $end
$dumpall
b11 [$
b10 T$
b1 M$
b0 F$
b11 R#
b10 K#
b1 D#
b0 =#
b11 I"
b10 B"
b1 ;"
b0 4"
b1 >
b0 =
b10 <
b10 '
$end
#0
$dumpvars
0B%
b0 A%
b0 @%
b0 ?%
bx >%
bx =%
bx <%
bx ;%
bx :%
bx 9%
bx 8%
b0 7%
b0 6%
05%
bx 4%
bx 3%
02%
b0 1%
bx 0%
bx /%
0.%
x-%
x,%
b0 +%
b0 *%
b0 )%
bx (%
bx '%
bx &%
bx %%
x$%
x#%
x"%
x!%
x~$
x}$
x|$
x{$
xz$
xy$
xx$
xw$
xv$
xu$
xt$
xs$
xr$
xq$
xp$
0o$
0n$
xm$
xl$
xk$
xj$
xi$
xh$
bx g$
bx f$
bx e$
xd$
xc$
xb$
xa$
x`$
x_$
x^$
x]$
x\$
xZ$
xY$
xX$
xW$
xV$
xU$
xS$
xR$
xQ$
xP$
xO$
xN$
xL$
xK$
xJ$
xI$
xH$
xG$
bx E$
bx D$
bx C$
xB$
xA$
x@$
x?$
x>$
x=$
x<$
x;$
x:$
x9$
x8$
x7$
x6$
x5$
x4$
x3$
x2$
x1$
x0$
x/$
x.$
x-$
x,$
x+$
x*$
x)$
x($
bx '$
1&$
bx %$
bx $$
x#$
x"$
x!$
x~#
x}#
x|#
x{#
xz#
xy#
xx#
xw#
xv#
xu#
xt#
xs#
xr#
xq#
xp#
xo#
0n#
0m#
xl#
xk#
xj#
xi#
xh#
xg#
bx f#
0e#
bx d#
bx c#
xb#
xa#
bx `#
bx _#
bx ^#
bx ]#
bx \#
x[#
xZ#
xY#
xX#
xW#
xV#
xU#
xT#
xS#
xQ#
xP#
xO#
xN#
xM#
xL#
xJ#
xI#
xH#
xG#
xF#
xE#
xC#
xB#
xA#
x@#
x?#
x>#
bx <#
bx ;#
bx :#
x9#
x8#
x7#
x6#
x5#
x4#
x3#
x2#
x1#
x0#
x/#
x.#
x-#
x,#
x+#
x*#
x)#
x(#
x'#
x&#
x%#
x$#
x##
x"#
x!#
x~"
x}"
bx |"
1{"
bx z"
bx y"
xx"
xw"
xv"
xu"
xt"
xs"
xr"
xq"
xp"
xo"
xn"
xm"
xl"
xk"
xj"
xi"
xh"
xg"
xf"
0e"
0d"
xc"
xb"
xa"
x`"
x_"
x^"
bx ]"
0\"
bx ["
bx Z"
xY"
xX"
bx W"
bx V"
bx U"
bx T"
bx S"
xR"
xQ"
xP"
xO"
xN"
xM"
xL"
xK"
xJ"
xH"
xG"
xF"
xE"
xD"
xC"
xA"
x@"
x?"
x>"
x="
x<"
x:"
x9"
x8"
x7"
x6"
x5"
bx 3"
bx 2"
bx 1"
x0"
x/"
x."
x-"
x,"
x+"
x*"
x)"
x("
x'"
x&"
x%"
x$"
x#"
x""
x!"
x~
x}
x|
x{
xz
xy
xx
xw
xv
xu
xt
bx s
1r
bx q
bx p
xo
xn
xm
xl
xk
xj
xi
xh
xg
xf
xe
xd
xc
xb
xa
x`
x_
x^
x]
0\
0[
xZ
xY
xX
xW
xV
xU
bx T
0S
bx R
bx Q
xP
xO
bx N
bx M
bx L
bx K
bx J
xI
xH
xG
bx F
0E
bx D
bx C
b0 B
b0 A
0@
0?
bx ;
bx :
x9
08
b0 7
b0 6
05
b0 4
bx 3
bx 2
bx 1
bx 0
bx /
x.
1-
bx ,
0+
0*
bx )
bx (
bx &
bx %
0$
bx #
b0 "
bx !
$end
#1
1*
#2
0*
0-
#3
1*
#4
1K$
0P$
1R$
0W$
1Y$
0^$
b1111 `#
b1111 E$
1`$
0b$
19
0L$
1J$
0S$
1Q$
0Z$
1X$
0a$
1_$
0d$
1c$
1I#
1W#
1G
0B#
1G#
1U#
1Y#
1C#
0A#
1J#
0H#
1Q#
1X#
0V#
1[#
0Z#
1N"
0H
1L"
0P"
1G"
1J"
0P
1E"
1o
0n
1C"
0U
0K"
1O
1S#
b1010 W"
b1010 <#
0P#
1T#
0$%
1@"
b1111 N
b1111 3"
19"
1i
0g
00"
1/"
0N#
1x"
1v"
1w"
0O#
19#
17#
18#
0h$
1>"
17"
1<"
0V
0D"
1t
1E#
0L#
1^"
0M#
1}"
1N$
1U$
1\$
1V$
1]$
1|$
0{$
0Q"
1R"
0M"
1O"
0F"
1H"
1A"
1:"
1c
0b
08"
0?"
0*"
1("
0@#
1l"
1j"
1k"
0r"
1q"
03#
12#
0I$
1u#
1s#
1t#
1{#
1y#
1z#
1#$
1!$
1"$
1<$
1:$
1;$
1B$
1@$
1A$
0i$
0I
15"
0W
06"
0="
1u
0>#
1`"
1_"
1Y"
1?#
1F#
1~"
1X"
0G$
1i#
1h#
1g#
1b#
1H$
1O$
1)$
1($
1a#
1+#
14$
0p$
b1111101011110110 ;
b1111101011110110 F
b110 g$
1v$
0u$
0#%
b1111 M
b1111 T
b1111 1"
1]
0Z
0f
0h
0|
0y
0{
b0 L
b0 s
b0 2"
0$"
1#"
0'"
0)"
b1010 V"
b1010 ]"
b1010 :#
0f"
1c"
1i"
1u"
1'#
1$#
1&#
b1011 U"
b1011 |"
b1011 ;#
1-#
1*#
1,#
16#
b1110 _#
b1110 f#
b1110 C$
0o#
1l#
1r#
1x#
1~#
10$
1-$
1/$
b1111 ^#
b1111 '$
b1111 D$
16$
13$
15$
19$
1?$
0j$
1v
1!#
1*$
0l$
1r$
1x$
0~$
0Y
1_
0e
1k
0x
1~
0&"
1,"
1b"
1h"
1n"
1t"
1##
1)#
1/#
15#
1k#
1q#
1w#
1}#
1,$
12$
18$
1>$
0m$
0s$
0t$
0y$
0z$
0!%
0"%
0`
0a
0l
0m
1z
0!"
0""
0-"
0."
0o"
0p"
1%#
00#
01#
1.$
b110 f$
b1010 K
b1010 R
b1010 q
b1111 T"
b1111 ["
b1111 z"
b1111 ]#
b1111 d#
b1111 %$
0k$
0q$
0w$
0}$
1X
0^
1d
0j
1w
0}
1%"
0+"
1a"
1g"
0m"
1s"
1"#
1(#
0.#
14#
1j#
1p#
1v#
1|#
1+$
11$
17$
1=$
b1111111110100110 :
b1111111110100110 D
b0 e$
b101 J
b101 Q
b101 p
b1011 S"
b1011 Z"
b1011 y"
b1111 \#
b1111 c#
b1111 $$
0*
1.
b0 ,
b0 3
b1111101011110110 &
b1111101110101010 !
b1010010111100000 #
b1101 %
b1111111110100110 )
b1111111110100110 2
b1111111110100110 &%
b1111111110100110 0%
b1111101101010000 (
b1111101101010000 1
b1111101101010000 C
b1111101101010000 %%
b1111101101010000 /%
b11111111111111111111111110100110 0
b11111111111111111111101101010000 /
#5
1$
b1111101011110110 "
b1111101011110110 A
1*
#6
0*
0.
#7
0$
1*
#8
1I$
1P$
1W$
1^$
09
0b#
1L$
1S$
1Z$
1a$
1d$
0c$
0!$
0G
0g#
0Y#
0y#
09"
1@"
0G"
b1010 N
b1010 3"
1N"
1B#
0_"
1I#
0P#
0Y"
b1011 W"
b1011 <#
1W#
0X"
0h#
1K$
1R$
1Y$
b1111 `#
b1111 E$
1`$
07"
1>"
0E"
1L"
0("
1@#
0j"
1G#
0N#
0v"
1U#
07#
0s#
0J$
0Q$
0X$
0_$
05"
1W
1<"
0C"
1U
1J"
16"
1="
0u
0D"
1K"
0O
1>#
0`"
1E#
0L#
0^"
1S#
0?#
0F#
1M#
0}"
1T#
1G$
0i#
1N$
1U$
1\$
0H$
0O$
0V$
0]$
0|$
b1111101110101010 ;
b1111101110101010 F
b1010 g$
1$%
0]
1Z
1c
0i
1f
b1010 M
b1010 T
b1010 1"
1o
1|
1y
1{
1$"
0#"
0*"
1'"
0)"
b1011 L
b1011 s
b1011 2"
10"
0/"
1f"
0c"
1l"
0i"
0k"
0r"
0q"
b1011 V"
b1011 ]"
b1011 :#
1x"
0u"
0w"
0'#
0$#
0&#
0-#
0*#
0,#
13#
02#
b1100 U"
b1100 |"
b1100 ;#
19#
06#
08#
1o#
0l#
1u#
0r#
0t#
1{#
0x#
0z#
b1111 _#
b1111 f#
b1111 C$
1#$
0~#
0"$
00$
0-$
0/$
06$
03$
05$
0<$
09$
0;$
b0 ^#
b0 '$
b0 D$
0B$
0?$
0A$
0x$
1~$
1Y
0_
1e
0k
1x
0~
1&"
0,"
0b"
0h"
0n"
0t"
0##
0)#
0/#
05#
0k#
0q#
0w#
0}#
0,$
02$
08$
0>$
b1010 f$
b101 K
b101 R
b101 q
b0 T"
b0 ["
b0 z"
b0 ]#
b0 d#
b0 %$
b1011010 :
b1011010 D
0*
1.
b1 ,
b1 3
#9
1$
b1111101110101010 "
b1111101110101010 A
1*
#10
0*
0.
#11
0$
1*
#12
1C#
0A#
1J#
0H#
1Q#
1X#
1[#
0Z#
1v"
1w"
0L$
1J$
0S$
1Q$
0Z$
1X$
0a$
1_$
0d$
1c$
0V#
19"
1@"
1G"
b1111 N
b1111 3"
1N"
0H
0B#
1I#
1^"
0P#
b1010 W"
b1010 <#
1W#
1G
1K$
1R$
1Y$
b1111 `#
b1111 E$
1`$
19
17"
1>"
0g
1E"
1L"
0P"
1("
0@#
1j"
1k"
1G#
1q"
0N#
1U#
1Y#
17#
18#
0I$
1s#
1t#
0P$
1y#
1z#
0W$
1!$
1"$
0^$
0b$
15"
0W
1<"
0V
1C"
0U
1J"
0P
06"
0="
1u
0D"
1t
0K"
1O
0>#
1`"
1E#
1_"
0L#
1S#
1Y"
1?#
1F#
0M#
1}"
1T#
1X"
0G$
1i#
1N$
1h#
1U$
1g#
1\$
1b#
1H$
1O$
1V$
1]$
1|$
b1111101011110110 ;
b1111101011110110 F
b110 g$
0$%
1]
0Z
1c
0b
1i
0f
b1111 M
b1111 T
b1111 1"
1o
0n
0|
0y
0{
0$"
1#"
0*"
0'"
b0 L
b0 s
b0 2"
00"
1/"
0f"
1c"
1l"
1i"
0r"
b1010 V"
b1010 ]"
b1010 :#
1x"
1u"
1'#
1$#
1&#
1-#
1*#
1,#
03#
12#
b1011 U"
b1011 |"
b1011 ;#
19#
16#
0o#
1l#
1u#
1r#
1{#
1x#
b1110 _#
b1110 f#
b1110 C$
1#$
1~#
10$
1-$
1/$
16$
13$
15$
1<$
19$
1;$
b1111 ^#
b1111 '$
b1111 D$
1B$
1?$
1A$
1x$
0~$
0Y
1_
0e
1k
0x
1~
0&"
1,"
1b"
1h"
1n"
1t"
1##
1)#
1/#
15#
1k#
1q#
1w#
1}#
1,$
12$
18$
1>$
b110 f$
b1010 K
b1010 R
b1010 q
b1111 T"
b1111 ["
b1111 z"
b1111 ]#
b1111 d#
b1111 %$
b1111111110100110 :
b1111111110100110 D
0*
1.
b11 ,
b11 3
#13
b10 B
1?
1*
#14
0*
0.
#15
1.%
1-%
0,%
b1011010 (%
b10010110000 '%
0?
1*
#16
0*
#17
b1 )%
b0 6
b0 +%
1*
#18
0*
#19
b10 )%
b0 6
b0 +%
1*
#20
0*
#21
b11 )%
b0 6
b0 +%
1*
#22
0*
#23
b100 )%
b0 6
b0 +%
1*
#24
0*
#25
b101 )%
b0 6
b0 +%
1*
#26
0*
