HW_DSD_CPU_402106112/src/controller_tb.vcd
$date
	Sun Jul 27 19:13:33 2025
$end
$version
	Icarus Verilog
$end
$timescale
	1s
$end
$scope module controller_tb $end
$var parameter 32 ! CLK_PERIOD $end
$var reg 1 " clk $end
$var reg 1 # reset $end
$scope module cpu $end
$var wire 1 " clk $end
$var wire 1 # reset $end
$var wire 16 $ operator2 [15:0] $end
$var wire 16 % operator1 [15:0] $end
$var wire 16 & mem_read_data [15:0] $end
$var wire 16 ' alu_result [15:0] $end
$var wire 1 ( alu_done $end
$var parameter 32 ) ALU_WAIT $end
$var parameter 32 * CLK_PERIOD $end
$var parameter 32 + DECODE $end
$var parameter 32 , DONE $end
$var parameter 32 - EXECUTION $end
$var parameter 32 . FETCH $end
$var parameter 32 / FETCH_WAIT_1 $end
$var parameter 32 0 FETCH_WAIT_2 $end
$var parameter 32 1 LOAD_WAIT_1 $end
$var parameter 32 2 LOAD_WAIT_2 $end
$var parameter 32 3 READ_REGISTER_FILE $end
$var parameter 32 4 WRITE_BACK $end
$var reg 16 5 A [15:0] $end
$var reg 16 6 B [15:0] $end
$var reg 16 7 PC [15:0] $end
$var reg 3 8 alu_opcode [2:0] $end
$var reg 1 9 alu_start $end
$var reg 16 : fetched_address [15:0] $end
$var reg 16 ; instruction [15:0] $end
$var reg 16 < mem_address [15:0] $end
$var reg 1 = mem_read_enable $end
$var reg 16 > mem_write_data [15:0] $end
$var reg 1 ? mem_write_enable $end
$var reg 3 @ opcode [2:0] $end
$var reg 2 A rd [1:0] $end
$var reg 2 B read_reg_1_num [1:0] $end
$var reg 2 C read_reg_2_num [1:0] $end
$var reg 1 D ready $end
$var reg 16 E reg_write_data [15:0] $end
$var reg 1 F reg_write_enable $end
$var reg 16 G result [15:0] $end
$var reg 2 H rs1 [1:0] $end
$var reg 2 I rs2 [1:0] $end
$var reg 4 J state [3:0] $end
$var reg 2 K write_reg_num [1:0] $end
$scope module alu $end
$var wire 16 L A [15:0] $end
$var wire 16 M B [15:0] $end
$var wire 1 " clk $end
$var wire 3 N opcode [2:0] $end
$var wire 1 # reset $end
$var wire 1 9 start $end
$var wire 16 O mul_result [15:0] $end
$var wire 1 P mul_done $end
$var wire 16 Q div_remainder [15:0] $end
$var wire 16 R div_quotient [15:0] $end
$var wire 1 S div_done $end
$var wire 1 T c_out $end
$var wire 16 U b_adder [15:0] $end
$var wire 16 V add_sub_result [15:0] $end
$var parameter 32 W ADD_SUB_WAIT $end
$var parameter 32 X DIV_WAIT $end
$var parameter 32 Y IDLE $end
$var parameter 32 Z MUL_WAIT $end
$var reg 1 [ div_start $end
$var reg 1 ( done $end
$var reg 1 \ mul_start $end
$var reg 16 ] result [15:0] $end
$var reg 2 ^ state [1:0] $end
$scope module add_sub $end
$var wire 16 _ A [15:0] $end
$var wire 16 ` B [15:0] $end
$var wire 1 a c_in $end
$var wire 16 b sum [15:0] $end
$var wire 1 T c_out $end
$var wire 1 c c3 $end
$var wire 1 d c2 $end
$var wire 1 e c1 $end
$scope module csa2 $end
$var wire 4 f A [3:0] $end
$var wire 4 g B [3:0] $end
$var wire 4 h sum_2 [3:0] $end
$var wire 4 i sum_1 [3:0] $end
$var wire 4 j sum [3:0] $end
$var wire 1 k c_out_2 $end
$var wire 1 l c_out_1 $end
$var wire 1 d c_out $end
$var wire 1 e c_in $end
$scope module rca_1 $end
$var wire 4 m A [3:0] $end
$var wire 4 n B [3:0] $end
$var wire 1 o c_in $end
$var wire 4 p sum [3:0] $end
$var wire 1 l c_out $end
$var wire 1 q c3 $end
$var wire 1 r c2 $end
$var wire 1 s c1 $end
$scope module f1 $end
$var wire 1 t a $end
$var wire 1 u b $end
$var wire 1 v c1 $end
$var wire 1 w c2 $end
$var wire 1 x c3 $end
$var wire 1 o c_in $end
$var wire 1 s c_out $end
$var wire 1 y sum $end
$upscope $end
$scope module f2 $end
$var wire 1 z a $end
$var wire 1 { b $end
$var wire 1 | c1 $end
$var wire 1 } c2 $end
$var wire 1 ~ c3 $end
$var wire 1 s c_in $end
$var wire 1 r c_out $end
$var wire 1 !" sum $end
$upscope $end
$scope module f3 $end
$var wire 1 "" a $end
$var wire 1 #" b $end
$var wire 1 $" c1 $end
$var wire 1 %" c2 $end
$var wire 1 &" c3 $end
$var wire 1 r c_in $end
$var wire 1 q c_out $end
$var wire 1 '" sum $end
$upscope $end
$scope module f4 $end
$var wire 1 (" a $end
$var wire 1 )" b $end
$var wire 1 *" c1 $end
$var wire 1 +" c2 $end
$var wire 1 ," c3 $end
$var wire 1 q c_in $end
$var wire 1 l c_out $end
$var wire 1 -" sum $end
$upscope $end
$upscope $end
$scope module rca_2 $end
$var wire 4 ." A [3:0] $end
$var wire 4 /" B [3:0] $end
$var wire 1 0" c_in $end
$var wire 4 1" sum [3:0] $end
$var wire 1 k c_out $end
$var wire 1 2" c3 $end
$var wire 1 3" c2 $end
$var wire 1 4" c1 $end
$scope module f1 $end
$var wire 1 5" a $end
$var wire 1 6" b $end
$var wire 1 7" c1 $end
$var wire 1 8" c2 $end
$var wire 1 9" c3 $end
$var wire 1 0" c_in $end
$var wire 1 4" c_out $end
$var wire 1 :" sum $end
$upscope $end
$scope module f2 $end
$var wire 1 ;" a $end
$var wire 1 <" b $end
$var wire 1 =" c1 $end
$var wire 1 >" c2 $end
$var wire 1 ?" c3 $end
$var wire 1 4" c_in $end
$var wire 1 3" c_out $end
$var wire 1 @" sum $end
$upscope $end
$scope module f3 $end
$var wire 1 A" a $end
$var wire 1 B" b $end
$var wire 1 C" c1 $end
$var wire 1 D" c2 $end
$var wire 1 E" c3 $end
$var wire 1 3" c_in $end
$var wire 1 2" c_out $end
$var wire 1 F" sum $end
$upscope $end
$scope module f4 $end
$var wire 1 G" a $end
$var wire 1 H" b $end
$var wire 1 I" c1 $end
$var wire 1 J" c2 $end
$var wire 1 K" c3 $end
$var wire 1 2" c_in $end
$var wire 1 k c_out $end
$var wire 1 L" sum $end
$upscope $end
$upscope $end
$scope module result_1 $end
$var wire 4 M" A [3:0] $end
$var wire 4 N" B [3:0] $end
$var wire 1 e select $end
$var wire 4 O" out [3:0] $end
$scope begin mux_loop[0] $end
$var parameter 2 P" i $end
$scope module m $end
$var wire 1 Q" a $end
$var wire 1 R" b $end
$var wire 1 S" c1 $end
$var wire 1 T" c2 $end
$var wire 1 U" out $end
$var wire 1 V" s_not $end
$var wire 1 e s $end
$upscope $end
$upscope $end
$scope begin mux_loop[1] $end
$var parameter 2 W" i $end
$scope module m $end
$var wire 1 X" a $end
$var wire 1 Y" b $end
$var wire 1 Z" c1 $end
$var wire 1 [" c2 $end
$var wire 1 \" out $end
$var wire 1 ]" s_not $end
$var wire 1 e s $end
$upscope $end
$upscope $end
$scope begin mux_loop[2] $end
$var parameter 3 ^" i $end
$scope module m $end
$var wire 1 _" a $end
$var wire 1 `" b $end
$var wire 1 a" c1 $end
$var wire 1 b" c2 $end
$var wire 1 c" out $end
$var wire 1 d" s_not $end
$var wire 1 e s $end
$upscope $end
$upscope $end
$scope begin mux_loop[3] $end
$var parameter 3 e" i $end
$scope module m $end
$var wire 1 f" a $end
$var wire 1 g" b $end
$var wire 1 h" c1 $end
$var wire 1 i" c2 $end
$var wire 1 j" out $end
$var wire 1 k" s_not $end
$var wire 1 e s $end
$upscope $end
$upscope $end
$upscope $end
$scope module result_2 $end
$var wire 1 l a $end
$var wire 1 k b $end
$var wire 1 l" c1 $end
$var wire 1 m" c2 $end
$var wire 1 d out $end
$var wire 1 n" s_not $end
$var wire 1 e s $end
$upscope $end
$upscope $end
$scope module csa3 $end
$var wire 4 o" A [3:0] $end
$var wire 4 p" B [3:0] $end
$var wire 1 d c_in $end
$var wire 4 q" sum_2 [3:0] $end
$var wire 4 r" sum_1 [3:0] $end
$var wire 4 s" sum [3:0] $end
$var wire 1 t" c_out_2 $end
$var wire 1 u" c_out_1 $end
$var wire 1 c c_out $end
$scope module rca_1 $end
$var wire 4 v" A [3:0] $end
$var wire 4 w" B [3:0] $end
$var wire 1 x" c_in $end
$var wire 4 y" sum [3:0] $end
$var wire 1 u" c_out $end
$var wire 1 z" c3 $end
$var wire 1 {" c2 $end
$var wire 1 |" c1 $end
$scope module f1 $end
$var wire 1 }" a $end
$var wire 1 ~" b $end
$var wire 1 !# c1 $end
$var wire 1 "# c2 $end
$var wire 1 ## c3 $end
$var wire 1 x" c_in $end
$var wire 1 |" c_out $end
$var wire 1 $# sum $end
$upscope $end
$scope module f2 $end
$var wire 1 %# a $end
$var wire 1 &# b $end
$var wire 1 '# c1 $end
$var wire 1 (# c2 $end
$var wire 1 )# c3 $end
$var wire 1 |" c_in $end
$var wire 1 {" c_out $end
$var wire 1 *# sum $end
$upscope $end
$scope module f3 $end
$var wire 1 +# a $end
$var wire 1 ,# b $end
$var wire 1 -# c1 $end
$var wire 1 .# c2 $end
$var wire 1 /# c3 $end
$var wire 1 {" c_in $end
$var wire 1 z" c_out $end
$var wire 1 0# sum $end
$upscope $end
$scope module f4 $end
$var wire 1 1# a $end
$var wire 1 2# b $end
$var wire 1 3# c1 $end
$var wire 1 4# c2 $end
$var wire 1 5# c3 $end
$var wire 1 z" c_in $end
$var wire 1 u" c_out $end
$var wire 1 6# sum $end
$upscope $end
$upscope $end
$scope module rca_2 $end
$var wire 4 7# A [3:0] $end
$var wire 4 8# B [3:0] $end
$var wire 1 9# c_in $end
$var wire 4 :# sum [3:0] $end
$var wire 1 t" c_out $end
$var wire 1 ;# c3 $end
$var wire 1 <# c2 $end
$var wire 1 =# c1 $end
$scope module f1 $end
$var wire 1 ># a $end
$var wire 1 ?# b $end
$var wire 1 @# c1 $end
$var wire 1 A# c2 $end
$var wire 1 B# c3 $end
$var wire 1 9# c_in $end
$var wire 1 =# c_out $end
$var wire 1 C# sum $end
$upscope $end
$scope module f2 $end
$var wire 1 D# a $end
$var wire 1 E# b $end
$var wire 1 F# c1 $end
$var wire 1 G# c2 $end
$var wire 1 H# c3 $end
$var wire 1 =# c_in $end
$var wire 1 <# c_out $end
$var wire 1 I# sum $end
$upscope $end
$scope module f3 $end
$var wire 1 J# a $end
$var wire 1 K# b $end
$var wire 1 L# c1 $end
$var wire 1 M# c2 $end
$var wire 1 N# c3 $end
$var wire 1 <# c_in $end
$var wire 1 ;# c_out $end
$var wire 1 O# sum $end
$upscope $end
$scope module f4 $end
$var wire 1 P# a $end
$var wire 1 Q# b $end
$var wire 1 R# c1 $end
$var wire 1 S# c2 $end
$var wire 1 T# c3 $end
$var wire 1 ;# c_in $end
$var wire 1 t" c_out $end
$var wire 1 U# sum $end
$upscope $end
$upscope $end
$scope module result_1 $end
$var wire 4 V# A [3:0] $end
$var wire 4 W# B [3:0] $end
$var wire 1 d select $end
$var wire 4 X# out [3:0] $end
$scope begin mux_loop[0] $end
$var parameter 2 Y# i $end
$scope module m $end
$var wire 1 Z# a $end
$var wire 1 [# b $end
$var wire 1 \# c1 $end
$var wire 1 ]# c2 $end
$var wire 1 ^# out $end
$var wire 1 d s $end
$var wire 1 _# s_not $end
$upscope $end
$upscope $end
$scope begin mux_loop[1] $end
$var parameter 2 `# i $end
$scope module m $end
$var wire 1 a# a $end
$var wire 1 b# b $end
$var wire 1 c# c1 $end
$var wire 1 d# c2 $end
$var wire 1 e# out $end
$var wire 1 d s $end
$var wire 1 f# s_not $end
$upscope $end
$upscope $end
$scope begin mux_loop[2] $end
$var parameter 3 g# i $end
$scope module m $end
$var wire 1 h# a $end
$var wire 1 i# b $end
$var wire 1 j# c1 $end
$var wire 1 k# c2 $end
$var wire 1 l# out $end
$var wire 1 d s $end
$var wire 1 m# s_not $end
$upscope $end
$upscope $end
$scope begin mux_loop[3] $end
$var parameter 3 n# i $end
$scope module m $end
$var wire 1 o# a $end
$var wire 1 p# b $end
$var wire 1 q# c1 $end
$var wire 1 r# c2 $end
$var wire 1 s# out $end
$var wire 1 d s $end
$var wire 1 t# s_not $end
$upscope $end
$upscope $end
$upscope $end
$scope module result_2 $end
$var wire 1 u" a $end
$var wire 1 t" b $end
$var wire 1 u# c1 $end
$var wire 1 v# c2 $end
$var wire 1 c out $end
$var wire 1 d s $end
$var wire 1 w# s_not $end
$upscope $end
$upscope $end
$scope module csa4 $end
$var wire 4 x# A [3:0] $end
$var wire 4 y# B [3:0] $end
$var wire 1 c c_in $end
$var wire 4 z# sum_2 [3:0] $end
$var wire 4 {# sum_1 [3:0] $end
$var wire 4 |# sum [3:0] $end
$var wire 1 }# c_out_2 $end
$var wire 1 ~# c_out_1 $end
$var wire 1 T c_out $end
$scope module rca_1 $end
$var wire 4 !$ A [3:0] $end
$var wire 4 "$ B [3:0] $end
$var wire 1 #$ c_in $end
$var wire 4 $$ sum [3:0] $end
$var wire 1 ~# c_out $end
$var wire 1 %$ c3 $end
$var wire 1 &$ c2 $end
$var wire 1 '$ c1 $end
$scope module f1 $end
$var wire 1 ($ a $end
$var wire 1 )$ b $end
$var wire 1 *$ c1 $end
$var wire 1 +$ c2 $end
$var wire 1 ,$ c3 $end
$var wire 1 #$ c_in $end
$var wire 1 '$ c_out $end
$var wire 1 -$ sum $end
$upscope $end
$scope module f2 $end
$var wire 1 .$ a $end
$var wire 1 /$ b $end
$var wire 1 0$ c1 $end
$var wire 1 1$ c2 $end
$var wire 1 2$ c3 $end
$var wire 1 '$ c_in $end
$var wire 1 &$ c_out $end
$var wire 1 3$ sum $end
$upscope $end
$scope module f3 $end
$var wire 1 4$ a $end
$var wire 1 5$ b $end
$var wire 1 6$ c1 $end
$var wire 1 7$ c2 $end
$var wire 1 8$ c3 $end
$var wire 1 &$ c_in $end
$var wire 1 %$ c_out $end
$var wire 1 9$ sum $end
$upscope $end
$scope module f4 $end
$var wire 1 :$ a $end
$var wire 1 ;$ b $end
$var wire 1 <$ c1 $end
$var wire 1 =$ c2 $end
$var wire 1 >$ c3 $end
$var wire 1 %$ c_in $end
$var wire 1 ~# c_out $end
$var wire 1 ?$ sum $end
$upscope $end
$upscope $end
$scope module rca_2 $end
$var wire 4 @$ A [3:0] $end
$var wire 4 A$ B [3:0] $end
$var wire 1 B$ c_in $end
$var wire 4 C$ sum [3:0] $end
$var wire 1 }# c_out $end
$var wire 1 D$ c3 $end
$var wire 1 E$ c2 $end
$var wire 1 F$ c1 $end
$scope module f1 $end
$var wire 1 G$ a $end
$var wire 1 H$ b $end
$var wire 1 I$ c1 $end
$var wire 1 J$ c2 $end
$var wire 1 K$ c3 $end
$var wire 1 B$ c_in $end
$var wire 1 F$ c_out $end
$var wire 1 L$ sum $end
$upscope $end
$scope module f2 $end
$var wire 1 M$ a $end
$var wire 1 N$ b $end
$var wire 1 O$ c1 $end
$var wire 1 P$ c2 $end
$var wire 1 Q$ c3 $end
$var wire 1 F$ c_in $end
$var wire 1 E$ c_out $end
$var wire 1 R$ sum $end
$upscope $end
$scope module f3 $end
$var wire 1 S$ a $end
$var wire 1 T$ b $end
$var wire 1 U$ c1 $end
$var wire 1 V$ c2 $end
$var wire 1 W$ c3 $end
$var wire 1 E$ c_in $end
$var wire 1 D$ c_out $end
$var wire 1 X$ sum $end
$upscope $end
$scope module f4 $end
$var wire 1 Y$ a $end
$var wire 1 Z$ b $end
$var wire 1 [$ c1 $end
$var wire 1 \$ c2 $end
$var wire 1 ]$ c3 $end
$var wire 1 D$ c_in $end
$var wire 1 }# c_out $end
$var wire 1 ^$ sum $end
$upscope $end
$upscope $end
$scope module result_1 $end
$var wire 4 _$ A [3:0] $end
$var wire 4 `$ B [3:0] $end
$var wire 1 c select $end
$var wire 4 a$ out [3:0] $end
$scope begin mux_loop[0] $end
$var parameter 2 b$ i $end
$scope module m $end
$var wire 1 c$ a $end
$var wire 1 d$ b $end
$var wire 1 e$ c1 $end
$var wire 1 f$ c2 $end
$var wire 1 g$ out $end
$var wire 1 c s $end
$var wire 1 h$ s_not $end
$upscope $end
$upscope $end
$scope begin mux_loop[1] $end
$var parameter 2 i$ i $end
$scope module m $end
$var wire 1 j$ a $end
$var wire 1 k$ b $end
$var wire 1 l$ c1 $end
$var wire 1 m$ c2 $end
$var wire 1 n$ out $end
$var wire 1 c s $end
$var wire 1 o$ s_not $end
$upscope $end
$upscope $end
$scope begin mux_loop[2] $end
$var parameter 3 p$ i $end
$scope module m $end
$var wire 1 q$ a $end
$var wire 1 r$ b $end
$var wire 1 s$ c1 $end
$var wire 1 t$ c2 $end
$var wire 1 u$ out $end
$var wire 1 c s $end
$var wire 1 v$ s_not $end
$upscope $end
$upscope $end
$scope begin mux_loop[3] $end
$var parameter 3 w$ i $end
$scope module m $end
$var wire 1 x$ a $end
$var wire 1 y$ b $end
$var wire 1 z$ c1 $end
$var wire 1 {$ c2 $end
$var wire 1 |$ out $end
$var wire 1 c s $end
$var wire 1 }$ s_not $end
$upscope $end
$upscope $end
$upscope $end
$scope module result_2 $end
$var wire 1 ~# a $end
$var wire 1 }# b $end
$var wire 1 ~$ c1 $end
$var wire 1 !% c2 $end
$var wire 1 T out $end
$var wire 1 c s $end
$var wire 1 "% s_not $end
$upscope $end
$upscope $end
$scope module rca1 $end
$var wire 4 #% A [3:0] $end
$var wire 4 $% B [3:0] $end
$var wire 1 a c_in $end
$var wire 4 %% sum [3:0] $end
$var wire 1 e c_out $end
$var wire 1 &% c3 $end
$var wire 1 '% c2 $end
$var wire 1 (% c1 $end
$scope module f1 $end
$var wire 1 )% a $end
$var wire 1 *% b $end
$var wire 1 +% c1 $end
$var wire 1 ,% c2 $end
$var wire 1 -% c3 $end
$var wire 1 a c_in $end
$var wire 1 (% c_out $end
$var wire 1 .% sum $end
$upscope $end
$scope module f2 $end
$var wire 1 /% a $end
$var wire 1 0% b $end
$var wire 1 1% c1 $end
$var wire 1 2% c2 $end
$var wire 1 3% c3 $end
$var wire 1 (% c_in $end
$var wire 1 '% c_out $end
$var wire 1 4% sum $end
$upscope $end
$scope module f3 $end
$var wire 1 5% a $end
$var wire 1 6% b $end
$var wire 1 7% c1 $end
$var wire 1 8% c2 $end
$var wire 1 9% c3 $end
$var wire 1 '% c_in $end
$var wire 1 &% c_out $end
$var wire 1 :% sum $end
$upscope $end
$scope module f4 $end
$var wire 1 ;% a $end
$var wire 1 <% b $end
$var wire 1 =% c1 $end
$var wire 1 >% c2 $end
$var wire 1 ?% c3 $end
$var wire 1 &% c_in $end
$var wire 1 e c_out $end
$var wire 1 @% sum $end
$upscope $end
$upscope $end
$upscope $end
$scope module div $end
$var wire 1 " clk $end
$var wire 16 A% dividend [15:0] $end
$var wire 16 B% divisor [15:0] $end
$var wire 1 # reset $end
$var wire 1 [ start $end
$var reg 16 C% abs_dividend [15:0] $end
$var reg 16 D% abs_divisor [15:0] $end
$var reg 5 E% counter [4:0] $end
$var reg 1 S done $end
$var reg 16 F% quotient [15:0] $end
$var reg 16 G% remainder [15:0] $end
$var reg 1 H% sign_q $end
$var reg 1 I% sign_r $end
$var reg 1 J% start_calc_flag $end
$upscope $end
$scope module mul $end
$var wire 16 K% A [15:0] $end
$var wire 16 L% B [15:0] $end
$var wire 1 " clk $end
$var wire 1 # reset $end
$var wire 1 \ start $end
$var wire 16 M% z3 [15:0] $end
$var wire 1 N% z2_done $end
$var wire 16 O% z2 [15:0] $end
$var wire 1 P% z1_done $end
$var wire 1 Q% z0_done $end
$var wire 16 R% z0 [15:0] $end
$var reg 1 S% active $end
$var reg 1 P done $end
$var reg 16 T% result [15:0] $end
$scope module z0_unit $end
$var wire 8 U% A [7:0] $end
$var wire 8 V% B [7:0] $end
$var wire 1 " clk $end
$var wire 1 # reset $end
$var wire 1 \ start $end
$var reg 16 W% A_shift [15:0] $end
$var reg 8 X% B_shift [7:0] $end
$var reg 4 Y% counter [3:0] $end
$var reg 1 Q% done $end
$var reg 16 Z% product [15:0] $end
$var reg 16 [% result [15:0] $end
$var reg 1 \% start_calc_flag $end
$upscope $end
$scope module z1_unit $end
$var wire 8 ]% A [7:0] $end
$var wire 8 ^% B [7:0] $end
$var wire 1 " clk $end
$var wire 1 # reset $end
$var wire 1 \ start $end
$var reg 16 _% A_shift [15:0] $end
$var reg 8 `% B_shift [7:0] $end
$var reg 4 a% counter [3:0] $end
$var reg 1 P% done $end
$var reg 16 b% product [15:0] $end
$var reg 16 c% result [15:0] $end
$var reg 1 d% start_calc_flag $end
$upscope $end
$scope module z2_unit $end
$var wire 8 e% A [7:0] $end
$var wire 8 f% B [7:0] $end
$var wire 1 " clk $end
$var wire 1 # reset $end
$var wire 1 \ start $end
$var reg 16 g% A_shift [15:0] $end
$var reg 8 h% B_shift [7:0] $end
$var reg 4 i% counter [3:0] $end
$var reg 1 N% done $end
$var reg 16 j% product [15:0] $end
$var reg 16 k% result [15:0] $end
$var reg 1 l% start_calc_flag $end
$upscope $end
$upscope $end
$upscope $end
$scope module mem $end
$var wire 16 m% address [15:0] $end
$var wire 1 " clk $end
$var wire 1 = read_enable $end
$var wire 16 n% write_data [15:0] $end
$var wire 1 ? write_enable $end
$var parameter 48 o% MEM_DEPTH $end
$var reg 16 p% read_data [15:0] $end
$upscope $end
$scope module rf $end
$var wire 1 " clk $end
$var wire 2 q% read_reg_1_num [1:0] $end
$var wire 2 r% read_reg_2_num [1:0] $end
$var wire 1 # reset $end
$var wire 16 s% write_data [15:0] $end
$var wire 1 F write_enable $end
$var wire 2 t% write_reg_num [1:0] $end
$var reg 16 u% read_data_1 [15:0] $end
$var reg 16 v% read_data_2 [15:0] $end
$var integer 32 w% i [31:0] $end
$upscope $end
$upscope $end
$upscope $end
$enddefinitions $end
$comment Show the parameter values. $end
$dumpall
b10000000000000000 o%
b11 w$
b10 p$
b1 i$
b0 b$
b11 n#
b10 g#
b1 `#
b0 Y#
b11 e"
b10 ^"
b1 W"
b0 P"
b10 Z
b0 Y
b11 X
b1 W
b1001 4
b100 3
b111 2
b110 1
b10 0
b1 /
b0 .
b101 -
b1010 ,
b11 +
b10 *
b1000 )
b10 !
$end
#0
$dumpvars
bx w%
bx v%
bx u%
bx t%
bx s%
bx r%
bx q%
bx p%
bx n%
bx m%
0l%
b0 k%
b0 j%
b0 i%
bx h%
bx g%
bx f%
bx e%
0d%
b0 c%
b0 b%
b0 a%
bx `%
bx _%
bx ^%
bx ]%
0\%
b0 [%
b0 Z%
b0 Y%
bx X%
bx W%
bx V%
bx U%
b0 T%
0S%
b0 R%
0Q%
0P%
b0 O%
0N%
b0 M%
bx L%
bx K%
0J%
xI%
xH%
b0 G%
b0 F%
b0 E%
bx D%
bx C%
bx B%
bx A%
x@%
x?%
x>%
x=%
x<%
x;%
x:%
x9%
x8%
x7%
x6%
x5%
x4%
x3%
x2%
x1%
x0%
x/%
x.%
0-%
0,%
x+%
x*%
x)%
x(%
x'%
x&%
bx %%
bx $%
bx #%
x"%
x!%
x~$
x}$
x|$
x{$
xz$
xy$
xx$
xv$
xu$
xt$
xs$
xr$
xq$
xo$
xn$
xm$
xl$
xk$
xj$
xh$
xg$
xf$
xe$
xd$
xc$
bx a$
bx `$
bx _$
x^$
x]$
x\$
x[$
xZ$
xY$
xX$
xW$
xV$
xU$
xT$
xS$
xR$
xQ$
xP$
xO$
xN$
xM$
xL$
xK$
xJ$
xI$
xH$
xG$
xF$
xE$
xD$
bx C$
1B$
bx A$
bx @$
x?$
x>$
x=$
x<$
x;$
x:$
x9$
x8$
x7$
x6$
x5$
x4$
x3$
x2$
x1$
x0$
x/$
x.$
x-$
0,$
0+$
x*$
x)$
x($
x'$
x&$
x%$
bx $$
0#$
bx "$
bx !$
x~#
x}#
bx |#
bx {#
bx z#
bx y#
bx x#
xw#
xv#
xu#
xt#
xs#
xr#
xq#
xp#
xo#
xm#
xl#
xk#
xj#
xi#
xh#
xf#
xe#
xd#
xc#
xb#
xa#
x_#
x^#
x]#
x\#
x[#
xZ#
bx X#
bx W#
bx V#
xU#
xT#
xS#
xR#
xQ#
xP#
xO#
xN#
xM#
xL#
xK#
xJ#
xI#
xH#
xG#
xF#
xE#
xD#
xC#
xB#
xA#
x@#
x?#
x>#
x=#
x<#
x;#
bx :#
19#
bx 8#
bx 7#
x6#
x5#
x4#
x3#
x2#
x1#
x0#
x/#
x.#
x-#
x,#
x+#
x*#
x)#
x(#
x'#
x&#
x%#
x$#
0##
0"#
x!#
x~"
x}"
x|"
x{"
xz"
bx y"
0x"
bx w"
bx v"
xu"
xt"
bx s"
bx r"
bx q"
bx p"
bx o"
xn"
xm"
xl"
xk"
xj"
xi"
xh"
xg"
xf"
xd"
xc"
xb"
xa"
x`"
x_"
x]"
x\"
x["
xZ"
xY"
xX"
xV"
xU"
xT"
xS"
xR"
xQ"
bx O"
bx N"
bx M"
xL"
xK"
xJ"
xI"
xH"
xG"
xF"
xE"
xD"
xC"
xB"
xA"
x@"
x?"
x>"
x="
x<"
x;"
x:"
x9"
x8"
x7"
x6"
x5"
x4"
x3"
x2"
bx 1"
10"
bx /"
bx ."
x-"
x,"
x+"
x*"
x)"
x("
x'"
x&"
x%"
x$"
x#"
x""
x!"
x~
x}
x|
x{
xz
xy
0x
0w
xv
xu
xt
xs
xr
xq
bx p
0o
bx n
bx m
xl
xk
bx j
bx i
bx h
bx g
bx f
xe
xd
xc
bx b
0a
bx `
bx _
b0 ^
b0 ]
0\
0[
bx V
bx U
xT
0S
b0 R
b0 Q
0P
b0 O
bx N
bx M
bx L
bx K
b0 J
bx I
bx H
bx G
xF
bx E
0D
bx C
bx B
bx A
bx @
x?
bx >
x=
bx <
bx ;
bx :
x9
bx 8
bx 7
bx 6
bx 5
0(
b0 '
bx &
bx %
bx $
1#
0"
$end
#1
b100 w%
1"
#2
0"
b0 7
0#
#3
b1 J
b0 <
b0 m%
1=
0?
1"
#4
0"
#5
b10 J
b100000010010 &
b100000010010 p%
1"
#6
0"
#7
b11 J
b100000010010 ;
1"
#8
0"
#9
b100 J
b0 I
b0 H
b1 A
b0 @
1"
#10
0"
#11
b101 J
b0 C
b0 r%
b0 B
b0 q%
0F
1"
#12
b1111111111000011 $
b1111111111000011 v%
b1111111111000011 %
b1111111111000011 u%
0"
#13
1g$
0l$
1n$
0s$
1u$
0z$
b1111 |#
b1111 a$
1|$
0~$
1T
0h$
1f$
0o$
1m$
0v$
1t$
0}$
1{$
0"%
1!%
1^#
0c#
1e#
0j#
1l#
0q#
b1111 s"
b1111 X#
1s#
0u#
1c
0_#
1]#
0f#
1d#
0m#
1k#
0t#
1r#
0w#
1v#
1d
1l"
1j"
1h"
0c"
0a"
0\"
0Z"
0X"
0_"
1f"
b1000 j
b1000 O"
0U"
0Y"
0`"
1g"
1a#
1h#
1o#
1b#
1i#
1p#
1j$
1q$
1x$
1k$
1r$
1y$
14%
12%
13%
1:%
0@%
1n"
0i"
1k"
0b"
1d"
0["
1]"
1V"
0S"
0!"
0'"
0%"
0&"
1-"
1+"
1,"
0T"
0@"
0F"
0D"
0E"
1L"
1J"
1K"
0m"
0\#
1*#
1(#
1)#
10#
1.#
1/#
16#
14#
15#
1I#
1G#
1H#
1O#
1M#
1N#
1U#
1S#
1T#
0e$
13$
11$
12$
19$
17$
18$
1?$
1=$
1>$
1R$
1P$
1Q$
1X$
1V$
1W$
1^$
1\$
1]$
1(%
1'%
0&%
0e
0Q"
0s
0r
1q
1l
1R"
04"
03"
12"
1k
0Z#
1|"
1{"
1z"
1u"
1[#
1=#
1<#
1;#
1t"
0c$
1'$
1&$
1%$
1~#
1d$
1F$
1E$
1D$
1}#
09%
0?%
0~
09"
0?"
1B#
1K$
b1111111110000110 V
b1111111110000110 b
b110 %%
0.%
1+%
11%
07%
08%
0=%
0>%
b1000 i
b1000 p
b1000 M"
0y
0v
0|
0}
1$"
1*"
b1001 h
b1001 1"
b1001 N"
1:"
07"
08"
0="
0>"
1C"
1I"
b1110 r"
b1110 y"
b1110 V#
0$#
1!#
1'#
1-#
13#
b1111 q"
b1111 :#
b1111 W#
1C#
1@#
1A#
1F#
1L#
1R#
b1110 {#
b1110 $$
b1110 _$
0-$
1*$
10$
16$
1<$
b1111 z#
b1111 C$
b1111 `$
1L$
1I$
1J$
1O$
1U$
1[$
1*%
10%
06%
0<%
0u
0{
1#"
1)"
06"
0<"
1B"
1H"
1~"
1&#
1,#
12#
1?#
1E#
1K#
1Q#
1)$
1/$
15$
1;$
1H$
1N$
1T$
1Z$
1)%
1/%
05%
0;%
0t
0z
1""
1("
05"
0;"
1A"
1G"
1}"
1%#
1+#
11#
1>#
1D#
1J#
1P#
1($
1.$
14$
1:$
1G$
1M$
1S$
1Y$
b11 $%
b1100 g
b1100 n
b1100 /"
b1111 p"
b1111 w"
b1111 8#
b1111 y#
b1111 "$
b1111 A$
b11000011 V%
b11111111 f%
b11000010 ^%
b11 #%
b1100 f
b1100 m
b1100 ."
b1111 o"
b1111 v"
b1111 7#
b1111 x#
b1111 !$
b1111 @$
b11000011 U%
b11111111 e%
b11000010 ]%
b1111111111000011 U
b1111111111000011 `
b1000 J
b1111111111000011 6
b1111111111000011 M
b1111111111000011 B%
b1111111111000011 L%
b1111111111000011 5
b1111111111000011 L
b1111111111000011 _
b1111111111000011 A%
b1111111111000011 K%
b0 8
b0 N
19
1"
#14
0"
#15
b1 ^
09
1"
#16
0"
#17
b0 ^
1(
b1111111110000110 '
b1111111110000110 ]
1"
#18
0"
#19
0(
b1001 J
b1111111110000110 G
1"
#20
0"
#21
b1010 J
b1111111110000110 E
b1111111110000110 s%
b1 K
b1 t%
1F
1"
#22
0"
#23
b0 J
b1 7
1D
1"
#24
0"
#25
b1 J
b1 <
b1 m%
0D
1"
#26
0"
#27
b10 J
b111001101001100 &
b111001101001100 p%
1"
#28
0"
#29
b11 J
b111001101001100 ;
1"
#30
0"
#31
b100 J
b10 I
b1 H
b10 A
b11 @
1"
#32
0"
